﻿Frequency (Hz)	Z' (Ω)	-Z'' (Ω)
100000	57.0672426880783	-0.219670613088776
79433	57.3234393129566	0.020293153065011
63096	57.4357462285585	0.282942243029979
50119	57.648501094619	0.462996792915537
39811	57.6983291678271	0.681046359563722
31623	57.8708782953683	0.912443083299962
25119	58.0049120031213	1.06365726169581
19953	58.1819212471188	1.33780813721631
15849	58.4234343065946	1.559606345338
12589	58.7110897784045	1.72065563240767
10000	59.0869022713055	1.82818212019003
7943.3	59.5078215695087	1.84324685279844
6309.6	59.8522373271681	1.7738185623127
5011.9	60.1993635481704	1.57168617759935
3981.1	60.4388441185393	1.34937707492452
3162.3	60.6107248495443	1.05950372610048
2511.9	60.6955989378959	0.798966380915468
1995.3	60.7525579577752	0.512115077880628
1584.9	60.723544455909	0.275088254666249
1258.9	60.6893839442169	0.106101950791901
1000	60.6164667689765	-0.056820273111318
794.33	60.5673680374916	-0.176554461665678
630.96	60.4244010521747	-0.320367772336474
501.19	60.3983886684522	-0.392731228350738
398.11	60.2594519007189	-0.48766278689311
316.23	60.1536046784422	-0.572547902004992
251.19	60.0727990196753	-0.692673008993981
199.53	60.0119680344704	-0.844930145779115
158.49	59.9270014437711	-0.982729851845297
125.89	59.8148313461822	-1.0910331952244
100	59.6787885105867	-1.43839349387767
79.433	59.5528710150824	-1.69469320515863
63.096	59.4050450473194	-2.04940136924267
50.119	59.2709469735051	-2.44170262538693
39.811	58.9225628358751	-2.97409957897027
31.623	58.455353478736	-3.5427933708132
25.119	58.2033417580922	-4.15975873727531
19.953	57.7170716021671	-5.0520801353382
15.849	57.3512329281886	-5.82319633848759
12.589	56.7557413004059	-6.62953666974933
10	56.0366497172781	-7.57550131340663
