﻿Frequency (Hz)	Z' (Ω)	-Z'' (Ω)
100000	54.5217576960152	0.400209992899287
79433	54.6544901975786	0.483028568600297
63096	54.7858442158294	0.663806939513738
50119	54.9832789333139	0.803662885792353
39811	55.080661251867	0.92363652550972
31623	55.2085802732393	1.07211260595709
25119	55.4104163625523	1.25634344498743
19953	55.6326834965012	1.43068695450553
15849	55.8965013056907	1.60202816179167
12589	56.2121957273491	1.66960649437656
10000	56.6163582046139	1.72223863322839
7943.3	56.8873087536713	1.65693264303083
6309.6	57.23115910997	1.53051626123702
5011.9	57.4721016022301	1.35244279873495
3981.1	57.718317383524	1.13849255286527
3162.3	57.8435437752948	0.953884356209053
2511.9	57.9428811577735	0.732027890191772
1995.3	57.9899956130748	0.556381592019966
1584.9	58.0386120290261	0.391806637657791
1258.9	57.9771415633455	0.260399130090942
1000	57.9600752259501	0.130387864658229
794.33	57.8754094684305	-0.0417280410559137
630.96	57.8716211294797	-0.0647936475206304
501.19	57.8111224717179	-0.117913311661587
398.11	57.7413441198585	-0.168518608666169
316.23	57.7175588206973	-0.320856377688839
251.19	57.6718443473369	-0.381930437583056
199.53	57.6043847578217	-0.453593419329485
158.49	57.523229511916	-0.586042418588347
125.89	57.3881544415351	-0.747586783751398
100	57.2719313053259	-0.886151443146763
79.433	57.1482488846249	-1.13237026807051
63.096	57.1020812015509	-1.38942740630686
50.119	56.9512186933807	-1.59155196876759
39.811	56.6798566599986	-1.97943896156488
31.623	56.4837362657827	-2.45019572981434
25.119	56.3785221509428	-2.95787012369637
19.953	56.0090075927916	-3.63126049909797
15.849	55.7263860231662	-4.34111095507805
12.589	55.2219957497616	-5.12132278218643
10	54.6402448270184	-6.13729919023804
