﻿Frequency (Hz)	Z' (Ω)	-Z'' (Ω)
100000	8328.75119743748	132720.435544642
79433	31096.5412915801	161742.535224967
63096	60641.0059507956	188924.799039279
50119	98495.0608441648	214661.125288367
39811	144871.698798475	238073.683540047
31623	200930.717875687	250743.998808078
25119	260242.016529261	249785.294275952
19953	317783.126716549	235107.458034585
15849	368425.837794827	207754.353069852
12589	409403.310742898	171408.248322441
10000	436360.256309566	124600.033418659
7943.3	449158.365851322	83877.8435680091
6309.6	447873.084894291	47105.8261475453
5011.9	438020.235378259	19322.353145795
3981.1	424161.458118332	1749.10298805217
3162.3	410189.349897019	-8086.7741786883
2511.9	398283.530240104	-12762.7119215699
1995.3	387916.499205848	-13929.4606395473
1584.9	379368.486437652	-13960.7625766053
1258.9	372824.602788646	-12464.3759377155
1000	369170.815048997	-13778.6803761356
794.33	364713.267472386	-10316.5539324466
630.96	363389.085493465	-8808.63801914373
501.19	361425.561970651	-6986.30231486139
398.11	360691.386321057	-5331.41697924036
316.23	359816.414998203	-4358.54611964351
251.19	359037.847188011	-3237.72343082892
199.53	358431.850138512	-2326.02134149831
158.49	358164.65713458	-1307.64336993628
125.89	357283.881817326	-473.432188571156
100	356896.505573948	237.225236077081
79.433	356189.369707586	646.494441477711
63.096	354975.049376593	1085.2065550209
50.119	353740.815330028	1812.50138630815
39.811	355163.134398593	2622.57836634375
31.623	355286.023610561	3421.32709713703
25.119	355717.924147871	4218.54032073584
19.953	357591.064201312	5033.37246226032
15.849	360163.340702368	6190.77982601769
12.589	362704.514404104	7669.22600112847
10	364244.885116778	9082.44038242201
