﻿Frequency (Hz)	Z' (Ω)	-Z'' (Ω)
100000	24634.8593746465	110689.275693831
79433	49084.1906332778	127668.175204356
63096	78047.6401201022	140805.823150448
50119	111791.138250033	148547.333993708
39811	149921.662139511	147828.687249632
31623	187262.069768504	135583.955689784
25119	217550.538564396	112682.327078086
19953	236839.738504457	83634.2581928531
15849	244471.028706599	54799.0294904467
12589	241522.41936748	30626.5820429426
10000	232314.295343235	12225.0892540199
7943.3	222962.162277267	2713.14310723475
6309.6	214026.908739798	-1836.98245525239
5011.9	206921.17375445	-3575.71760446051
3981.1	201268.375223498	-3849.05383603764
3162.3	197004.360697887	-3398.72267881597
2511.9	193820.415611925	-2710.03193567159
1995.3	192021.512923577	-2002.3077460392
1584.9	189855.45242073	-1408.25557522256
1258.9	188078.027883322	-927.266911782492
1000	186625.06748492	-935.669879195849
794.33	184851.519440894	-175.111121984507
630.96	183647.775377176	-163.738881179363
501.19	182581.227375055	305.647521595703
398.11	181575.141340157	206.75752673241
316.23	180720.140745143	414.328171571701
251.19	179920.643436112	464.338496420784
199.53	179006.030532153	578.011545572958
158.49	178344.732445507	755.120949154383
125.89	178004.33062881	933.512239544977
100	177520.348733783	974.13233699906
79.433	177071.831625654	1212.06721231294
63.096	176913.803616565	1386.96587899412
50.119	178222.338060561	1521.22118987943
39.811	180800.632529931	1646.63126441437
31.623	181970.49476877	1861.39246256932
25.119	183295.365087133	2093.08486207864
19.953	184945.25515189	2352.70609879547
15.849	186649.600447978	2666.69013196645
12.589	188262.145848991	3019.64340062793
10	189895.60630049	3359.87096406084
