﻿Frequency (Hz)	Z' (Ω)	-Z'' (Ω)
100000	98.4724326531458	-1.81614257198839
79433	98.4255616589486	-1.4445784015175
63096	98.3013749297673	-1.12392610679128
50119	98.1409071948895	-0.554741959519281
39811	97.876139045753	-0.357915059812956
31623	97.6882386934704	0.187124882079531
25119	97.633657257912	0.738005647385208
19953	97.5976041426019	1.33082966706466
15849	97.7141256522286	2.03284190086147
12589	97.8923525459295	2.7603570063437
10000	98.1206657053226	3.52506446289021
7943.3	98.37158514998	4.39504442143763
6309.6	98.8070617392641	5.41272275326879
5011.9	99.301159979561	6.59097040056712
3981.1	100.089828106666	7.88106500085571
3162.3	100.963665693354	9.30738661059776
2511.9	102.215851309858	10.8600298313526
1995.3	103.694648724178	12.5164140391548
1584.9	105.314555498122	14.0719394504124
1258.9	107.035474836945	15.7882433330159
1000	108.929702324805	17.5635673085003
794.33	110.698614078036	19.6227173174293
630.96	112.487257318153	22.0843809173317
501.19	114.15828305769	25.1118024421841
398.11	115.778901188491	28.7953393897659
316.23	117.405308110742	33.5573235409157
251.19	118.8786262104	39.4117925133516
199.53	120.628457242568	46.9339062458621
158.49	122.372962422141	56.2901089617513
125.89	124.426539006624	68.1858524494727
100	127.362008027995	82.8307442167857
79.433	131.728434138399	100.611690927738
63.096	138.514014000826	121.897436387989
50.119	146.93114449142	146.275525893725
39.811	159.766850519403	173.038746975223
31.623	179.411634330199	196.903042528507
25.119	205.485529717834	217.076441573134
19.953	238.105078190975	230.578677973615
15.849	277.539603691811	240.231269339682
12.589	321.155898997305	240.787451717654
10	371.608841796966	236.1914956184
