﻿Frequency (Hz)	Z' (Ω)	-Z'' (Ω)
100000	18522.2521130612	82949.6067124822
79433	30134.7876138337	97946.2437443703
63096	45508.9931257453	113511.77331635
50119	65093.7964024715	130371.562844214
39811	92476.6789466278	146300.239662671
31623	125577.457468363	157038.622818134
25119	161913.09932771	158973.973794745
19953	198036.411320422	152448.209409186
15849	229992.206552154	137695.89230601
12589	255664.005215574	118205.316531636
10000	272227.113205518	93995.1850154971
7943.3	282187.68573403	74780.7921593196
6309.6	286480.849014701	58109.9340421668
5011.9	288468.949375106	45279.6243009074
3981.1	288876.885891651	35465.9237204266
3162.3	288723.04495043	28082.0728734361
2511.9	288509.137803768	22441.6670815715
1995.3	289287.450859313	18224.4645432278
1584.9	288974.848431437	14626.9960905882
1258.9	288584.309499017	11733.8295908537
1000	287414.841723503	8416.47795180449
794.33	287460.04371291	8062.07159159505
630.96	288075.146433	6343.04851373413
501.19	288813.806865489	4204.97913219139
398.11	289110.108210015	3786.19720453508
316.23	289805.155917297	2746.43903122962
251.19	289858.665903219	1653.46931327177
199.53	290495.034298931	1331.23670151143
158.49	291077.286628241	936.128022988788
125.89	291089.424302906	503.642161637057
100	291056.176034896	291.134524306858
79.433	291078.269500007	105.080603584736
63.096	290864.354325283	63.6973826529878
50.119	291712.094316516	-165.108851701865
39.811	291545.758652459	708.426308759641
31.623	291096.412761592	1355.41071744246
25.119	290834.687335427	1963.34438131244
19.953	290920.535747143	2497.97966866202
15.849	290328.966179227	2891.31264185037
12.589	289888.345018935	3317.38293525288
10	289411.685135714	3623.64870474834
