﻿Frequency (Hz)	Z' (Ω)	-Z'' (Ω)
100000	65.8757268126299	-0.418969663553546
79433	66.093598144988	-0.145254193332084
63096	66.2673141145232	-0.00598249967244838
50119	66.3662395932899	0.157312573956962
39811	66.4894603234428	0.226376965284156
31623	66.5680039314112	0.441912776650729
25119	66.6328538095338	0.502718719083685
19953	66.7605248881679	0.695464990119239
15849	66.8688327845915	0.905253265870262
12589	66.9859724239076	1.10516702602363
10000	67.1824304770165	1.34797110508209
7943.3	67.3732432618518	1.5971475019873
6309.6	67.623183233704	1.87764200262919
5011.9	67.8404109625736	2.20083612350345
3981.1	68.1240779351139	2.49279132171115
3162.3	68.3844182022951	2.87955998645072
2511.9	68.8375703906802	3.21066333180194
1995.3	69.2108724373231	3.65767607462534
1584.9	69.5681747815198	4.14321951841031
1258.9	69.9153182323908	4.64500806835321
1000	70.1853490654255	5.19464088500452
794.33	70.3067786369133	5.93816462498101
630.96	70.2086028499695	6.86373707605531
501.19	69.7892747819972	8.22245010845465
398.11	69.1060636012803	10.1974910680008
316.23	67.9251841768902	12.9818771513335
251.19	66.4467983244855	17.0548013885742
199.53	64.5016411929212	22.6760313168103
158.49	62.0000225032823	30.3636380287654
125.89	59.2910385292403	40.7563313891076
100	56.2976494876373	55.1705597976867
79.433	53.1702403885244	74.2724305639122
63.096	51.5177313452772	100.001746434992
50.119	52.056106103061	136.445034686681
39.811	60.5359718492626	180.880692177697
31.623	80.3738404829923	235.66137399595
25.119	118.977041345387	295.349355003538
19.953	175.651733139505	352.957517937553
15.849	254.498065296123	406.519763168374
12.589	342.17246891664	429.214007605314
10	435.709182515077	443.178811269033
